{
    "releases": [
        { "date": "2023-06-06T00:00:00Z", "version": "v10.4.0" },
        { "date": "2023-01-17T00:00:00Z", "version": "v10.3.0" },
        { "date": "2022-12-27T00:00:00Z", "version": "v10.2.0" },
        { "date": "2022-07-26T00:00:00Z", "version": "v10.1.0" },
        { "date": "2022-02-07T00:00:00Z", "version": "v10.0.0" },
        { "date": "2021-08-03T00:00:00Z", "version": "v9.0.0" },
        { "date": "2021-05-12T00:00:00Z", "version": "v8.0.0" },
        { "date": "2021-03-17T00:00:00Z", "version": "v7.0.0" },
        { "date": "2021-01-25T00:00:00Z", "version": "v6.0.0" },
        { "date": "2021-01-12T00:00:00Z", "version": "v5.1.0" },
        { "date": "2020-11-16T00:00:00Z", "version": "v5.0.1" },
        { "date": "2020-11-12T00:00:00Z", "version": "v5.0.0" },
        { "date": "2020-11-04T00:00:00Z", "version": "v4.4" },
        { "date": "2020-10-27T00:00:00Z", "version": "v4.3" },
        { "date": "2020-09-25T00:00:00Z", "version": "v4.2" },
        { "date": "2020-08-25T00:00:00Z", "version": "v4.1" },
        { "date": "2020-07-29T00:00:00Z", "version": "v4.0" },
        { "date": "2020-04-15T00:00:00Z", "version": "v3.3" },
        { "date": "2020-04-08T00:00:00Z", "version": "v3.2" },
        { "date": "2020-03-11T00:00:00Z", "version": "v3.1" },
        { "date": "2020-02-26T00:00:00Z", "version": "v3.0" },
        { "date": "2020-01-15T00:00:00Z", "version": "v2.3" },
        { "date": "2019-11-26T00:00:00Z", "version": "v2.2" },
        { "date": "2019-09-19T00:00:00Z", "version": "v2.1" },
        { "date": "2019-09-05T00:00:00Z", "version": "v2.0" },
        { "date": "2019-08-28T00:00:00Z", "version": "v1.5" },
        { "date": "2019-07-31T00:00:00Z", "version": "v1.4" },
        { "date": "2019-07-30T00:00:00Z", "version": "v1.3" },
        { "date": "2019-07-22T00:00:00Z", "version": "v1.2" },
        { "date": "2019-07-15T00:00:00Z", "version": "v1.1" },
        { "date": "2019-06-27T00:00:00Z", "version": "v1.0" }
    ]
}
